﻿Maria Ozawa
Sinh nhật: 08/01/1986
Nơi sinh: Hokkaidō, Nhật Bản
Số đo: 89-58-86
Chiều cao: 1,61 m
Cân nặng: 48kg
Màu mắt: Nâu
Màu tóc: Đen
Nhóm máu: A
Giới tính: Nữ
Quốc tịch: Nhật và Pháp - Canada